{
  "$schema": "../../node_modules/@angular/service-worker/config/schema.json",
  "index": "/index.html",
  "assetGroups": [
    {
      "name": "app",
      "installMode": "prefetch",
      "resources": {
        "files": ["/favicon.ico", "/index.html", "/manifest.webmanifest", "/*.css", "/*.js"]
      }
    },
    {
      "name": "assets",
      "installMode": "lazy",
      "updateMode": "prefetch",
      "resources": {
        "files": ["/assets/**", "/*.(eot|svg|cur|jpg|png|webp|gif|otf|ttf|woff|woff2|ani)"]
      }
    }
  ],
  "dataGroups": [
    {
      "name": "freshness",
      "urls": [
        "/api/v2/aptoinit",
        "/api/v2/fulllookup",
        "/api/v2/account",
        "/api/v2/dynamicroute",
        "/api/v2/dynamicmenu",
        "/api/v2/form",
        "/api/v2/metadata/keys"
      ],
      "cacheConfig": {
        "maxSize": 50,
        "maxAge": "7d",
        "timeout": "2s",
        "strategy": "freshness"
      }
    },
    {
      "name": "staleWhileRevalidateMedia",
      "urls": [
        "/api/v2/media/photo"
      ],
      "cacheConfig": {
        "maxSize": 50,
        "maxAge": "7d",
        "timeout": "0u",
        "strategy": "freshness"
      }
    },
    {
      "name": "performance",
      "urls": ["/api/v2/timezone"],
      "cacheConfig": {
        "maxSize": 10,
        "maxAge": "14d",
        "strategy": "performance"
      }
    },
    {
      "name": "noCache",
      "urls": [
        "/api/v2/file/download",
        "/api/v2/datasources",
        "/api/v2/metadata/defaults",
        "/api/v2/metadata/conditional",
        "/api/v2/metadata/entity"
      ],
      "cacheConfig": {
        "maxSize": 0,
        "maxAge": "0u",
        "strategy": "freshness"
      }
    }
  ]
}
